module city

go 1.22.1

require (
	github.com/google/uuid v1.6.0
	github.com/joho/godotenv v1.5.1
	github.com/lib/pq v1.10.9
	github.com/spf13/cast v1.6.0
	github.com/stretchr/testify v1.9.0
	google.golang.org/grpc v1.64.0
	google.golang.org/protobuf v1.33.0
)

require (
	github.com/davecgh/go-spew v1.1.1 // indirect
	github.com/pmezard/go-difflib v1.0.0 // indirect
	golang.org/x/net v0.22.0 // indirect
	golang.org/x/sys v0.18.0 // indirect
	golang.org/x/text v0.14.0 // indirect
	google.golang.org/genproto/googleapis/rpc v0.0.0-20240318140521-94a12d6c2237 // indirect
	gopkg.in/yaml.v3 v3.0.1 // indirect
)
